<svg width="20" height="20" viewBox="0 0 20 20" fill="none" xmlns="http://www.w3.org/2000/svg">
<path d="M9.58333 0.75C12.0555 0.75 14.1042 2.81616 14.1042 5.36585C14.1042 7.91555 12.0555 9.98171 9.58333 9.98171C7.11116 9.98171 5.0625 7.91555 5.0625 5.36585C5.0625 2.81616 7.11116 0.75 9.58333 0.75Z" stroke="#147899" stroke-width="1.5"/>
<path d="M11.901 12.5667L11.901 12.5667L11.9063 12.5649C13.7393 11.95 15.7275 12.4646 16.9298 13.9345C17.8563 15.0987 18.4167 16.5923 18.4167 18.1953C18.4167 18.7938 17.9493 19.2502 17.3937 19.2502H1.77292C1.21742 19.2502 0.75 18.7938 0.75 18.1953C0.75 16.5912 1.31114 15.0966 2.23884 13.9321C3.41403 12.4684 5.42265 11.9484 7.26041 12.5649L7.26571 12.5667C8.00485 12.8086 8.77832 12.9453 9.58333 12.9453C10.3883 12.9453 11.1618 12.8086 11.901 12.5667Z" stroke="#147899" stroke-width="1.5"/>
</svg>
